[
  {
    "pk": 1,
    "model": "location.route",
    "fields": {
      "distance": 10,
      "updated_by": null,
      "date_updated": "2014-07-05T16:41:41.762Z",
      "created_by": null,
      "start_location": 1,
      "date_created": "2014-07-04T20:28:20Z",
      "end_location": 2,
      "name": "a really dusty path"
    }
  },
  {
    "pk": 2,
    "model": "location.route",
    "fields": {
      "distance": 10,
      "updated_by": null,
      "date_updated": "2014-07-05T16:41:33.504Z",
      "created_by": null,
      "start_location": 2,
      "date_created": "2014-07-04T20:29:33Z",
      "end_location": 1,
      "name": "a dusty path"
    }
  },
  {
    "pk": 3,
    "model": "location.route",
    "fields": {
      "distance": 8,
      "updated_by": null,
      "date_updated": "2014-07-13T01:12:42.283Z",
      "created_by": null,
      "start_location": 3,
      "date_created": "2014-07-13T01:12:02Z",
      "end_location": 1,
      "name": "Old forest road"
    }
  },
  {
    "pk": 4,
    "model": "location.route",
    "fields": {
      "distance": 8,
      "updated_by": null,
      "date_updated": "2014-07-13T01:12:58.544Z",
      "created_by": null,
      "start_location": 1,
      "date_created": "2014-07-13T01:12:44Z",
      "end_location": 3,
      "name": "Old forest road"
    }
  }
]